\relax 
\@writefile{toc}{\contentsline {section}{Problem 1}{3}}
\@writefile{toc}{\contentsline {section}{Problem 2}{5}}
\@writefile{toc}{\contentsline {section}{Problem 3}{6}}
\@writefile{toc}{\contentsline {section}{Problem 4}{7}}
\@writefile{toc}{\contentsline {section}{Problem 5}{8}}
\@writefile{toc}{\contentsline {section}{Problem 6}{9}}
\@writefile{toc}{\contentsline {section}{Problem 7}{10}}
\@writefile{toc}{\contentsline {section}{Problem 8}{11}}
\newlabel{LastPage}{{}{11}}
\xdef\lastpage@lastpage{11}
\gdef\lastpage@lastpageHy{}
