\contentsline {section}{Problem 1}{3}
\contentsline {section}{Problem 2}{5}
\contentsline {section}{Problem 3}{6}
\contentsline {section}{Problem 4}{7}
\contentsline {section}{Problem 5}{8}
\contentsline {section}{Problem 6}{9}
\contentsline {section}{Problem 7}{10}
\contentsline {section}{Problem 8}{11}
